<svg width="26" height="27" viewBox="0 0 26 27" fill="none" xmlns="http://www.w3.org/2000/svg">
<g clip-path="url(#clip0)">
<path d="M25.9804 9.39251C25.9744 9.36103 25.9692 9.32954 25.9608 9.29867C25.9555 9.28008 25.9492 9.26261 25.9433 9.24433C25.9348 9.21689 25.9252 9.18979 25.9146 9.16308C25.9069 9.1446 25.8981 9.12672 25.8897 9.10885C25.878 9.08361 25.8653 9.05887 25.8515 9.03471C25.8418 9.01683 25.8305 8.99997 25.8197 8.98291C25.7937 8.94245 25.7652 8.90371 25.7342 8.86692C25.7165 8.84609 25.6981 8.8259 25.679 8.80639C25.6642 8.79167 25.6495 8.77694 25.6341 8.76262C25.6137 8.74408 25.5926 8.72646 25.5707 8.70981C25.5539 8.69681 25.5375 8.6834 25.5199 8.67152C25.5137 8.66705 25.508 8.66177 25.5014 8.6575L13.6194 0.735627C13.436 0.613193 13.2204 0.547852 12.9998 0.547852C12.7793 0.547852 12.5637 0.613193 12.3803 0.735627L0.497453 8.6573C0.490852 8.66146 0.485672 8.66674 0.478969 8.67132C0.4615 8.6835 0.445047 8.6965 0.428188 8.7095C0.406609 8.72645 0.385477 8.74396 0.364812 8.76201C0.34947 8.77603 0.334632 8.7906 0.320328 8.80568C0.300727 8.82539 0.282547 8.84529 0.264672 8.86631C0.251469 8.88206 0.238773 8.8978 0.226484 8.91537C0.209727 8.93741 0.194289 8.95985 0.179258 8.98331C0.168391 9.00048 0.157523 9.01724 0.147367 9.03511C0.133739 9.05908 0.121134 9.08361 0.109586 9.10864C0.101156 9.12652 0.0921172 9.1447 0.0847031 9.16288C0.0738359 9.18949 0.0643906 9.21681 0.0556562 9.24413C0.0497656 9.26241 0.0434688 9.28018 0.0384922 9.29663C0.0303672 9.32741 0.0244766 9.35859 0.0188906 9.39048C0.0158438 9.40663 0.0118828 9.42237 0.00975 9.43882C0.00345313 9.48707 0 9.53541 0 9.58477V17.5083C0 17.5572 0.00345313 17.6063 0.0104609 17.6542C0.013 17.6718 0.0175703 17.6857 0.0210234 17.7026C0.0266094 17.734 0.0314844 17.7655 0.0420469 17.7971C0.0469219 17.8146 0.0525078 17.8321 0.0595156 17.8513C0.06825 17.8794 0.0769844 17.9074 0.0875469 17.933C0.0948594 17.9505 0.105016 17.9679 0.112023 17.9855C0.123602 18.01 0.136602 18.0345 0.150617 18.0601C0.160367 18.0775 0.171539 18.0951 0.182102 18.1111C0.197133 18.1357 0.213586 18.1567 0.231055 18.1777C0.243344 18.1952 0.255633 18.2092 0.269648 18.226C0.287422 18.247 0.304586 18.2681 0.325609 18.2866C0.33993 18.3006 0.353641 18.3181 0.371109 18.3286C0.391422 18.3462 0.413156 18.3636 0.434078 18.3818C0.450938 18.3958 0.469219 18.4064 0.483133 18.42C0.489836 18.4234 0.493695 18.4305 0.500703 18.4336L12.3803 26.3595C12.5633 26.4831 12.7792 26.5486 13 26.5475C13.2205 26.5471 13.4361 26.4818 13.6197 26.3596L25.5025 18.4378C25.5091 18.4337 25.5147 18.4287 25.521 18.4242C25.5385 18.412 25.555 18.399 25.5718 18.3861C25.5935 18.3688 25.6149 18.351 25.6352 18.3329C25.6505 18.3191 25.6653 18.3041 25.68 18.2894C25.7137 18.2554 25.7449 18.219 25.7734 18.1805C25.7903 18.1585 25.8057 18.1357 25.8207 18.1126C25.8316 18.0958 25.8425 18.0786 25.8526 18.0615C25.8666 18.0369 25.8788 18.0121 25.8907 17.9869C25.8991 17.9691 25.908 17.9512 25.9156 17.933C25.9265 17.906 25.9356 17.8787 25.9443 17.8513C25.9502 17.8332 25.9565 17.8153 25.9618 17.7971C25.9699 17.7663 25.9755 17.7348 25.9814 17.7033C25.9843 17.6871 25.9885 17.6714 25.9901 17.6549C25.9965 17.6067 26 17.5583 26 17.509V9.5868C26 9.53744 25.9961 9.4891 25.9901 9.44075C25.9874 9.42359 25.9821 9.40967 25.9787 9.39251H25.9804ZM12.9997 16.1906L9.04841 13.5478L12.9997 10.9047L16.9512 13.5478L12.9997 16.1906ZM11.8827 8.96392L7.03899 12.2038L3.12914 9.58812L11.8828 3.75254V8.96392H11.8827ZM5.02958 13.5474L2.23488 15.4168V11.6782L5.02958 13.5474ZM7.03899 14.8926L11.8828 18.1321V23.3434L3.12914 17.5072L7.03909 14.8919V14.8926H7.03899ZM14.1169 18.1315L18.9606 14.892L22.8709 17.5072L14.1169 23.3427V18.1314V18.1315ZM20.97 13.5481L23.7651 11.6785V15.4175L20.9701 13.5474V13.5481H20.97ZM18.9606 12.2037L14.1169 8.96422V3.75254L22.8709 9.58822L18.9607 12.2037H18.9606Z" fill="url(#paint0_linear)"/>
</g>
<defs>
<linearGradient id="paint0_linear" x1="2.95455" y1="20.6385" x2="26" y2="16.5021" gradientUnits="userSpaceOnUse">
<stop stop-color="#C1E151"/>
<stop offset="1" stop-color="#8EB409"/>
</linearGradient>
<clipPath id="clip0">
<rect width="26" height="26" fill="white" transform="translate(0 0.546875)"/>
</clipPath>
</defs>
</svg>
