<svg width="26" height="27" viewBox="0 0 26 27" fill="none" xmlns="http://www.w3.org/2000/svg">
<path d="M22.8022 13.9241C23.5327 14.6579 23.9429 15.6512 23.9429 16.6866C23.9429 17.722 23.5327 18.7153 22.8022 19.4491C22.0684 20.1796 21.0752 20.5897 20.0397 20.5897C19.0043 20.5897 18.011 20.1796 17.2772 19.4491L16.8352 18.7731C16.8352 23.5311 14.2352 24.4671 13.0002 25.2471C11.9342 24.4671 9.16524 23.5831 9.16524 18.7731L8.72324 19.4491C7.98943 20.1796 6.99616 20.5897 5.96074 20.5897C4.92531 20.5897 3.93204 20.1796 3.19824 19.4491C2.46773 18.7153 2.05762 17.722 2.05762 16.6866C2.05762 15.6512 2.46773 14.6579 3.19824 13.9241C3.19824 13.9241 4.52424 13.0531 5.92824 12.2341C4.7804 10.6892 4.16048 8.81577 4.16024 6.89111C4.16024 6.44911 4.19924 6.02011 4.26424 5.59111C4.59144 7.85142 5.76181 9.9042 7.54024 11.3371C8.41124 10.8821 9.94524 10.2581 10.6212 10.1411H10.4002C8.97024 10.1411 7.80024 8.97111 7.80024 7.54111C7.80024 6.11111 8.97024 4.94111 10.4002 4.94111V4.29111C10.4002 3.92711 10.6862 3.64111 11.0502 3.64111C11.4142 3.64111 11.7002 3.92711 11.7002 4.29111V4.94111H14.3002V4.29111C14.3002 3.92711 14.5862 3.64111 14.9502 3.64111C15.3142 3.64111 15.6002 3.92711 15.6002 4.29111V4.94111C17.0302 4.94111 18.2002 6.11111 18.2002 7.54111C18.2002 8.97111 17.0302 10.1411 15.6002 10.1411H15.3792C16.0422 10.2581 17.6932 10.9341 18.4732 11.3371C20.2517 9.9042 21.422 7.85142 21.7492 5.59111C21.8142 6.02011 21.8532 6.44911 21.8532 6.89111C21.8532 8.89311 21.1902 10.7391 20.0852 12.2341C21.4892 13.0531 22.8022 13.9241 22.8022 13.9241ZM11.0502 8.84111C11.7002 8.84111 12.3502 8.25611 12.3502 7.54111C12.3502 6.82611 11.7652 6.24111 11.0502 6.24111C10.3352 6.24111 9.75024 6.82611 9.75024 7.54111C9.75024 8.25611 10.3352 8.84111 11.0502 8.84111ZM14.9502 6.24111C14.2352 6.24111 13.6502 6.82611 13.6502 7.54111C13.6502 8.25611 14.2352 8.84111 14.9502 8.84111C15.6652 8.84111 16.2502 8.25611 16.2502 7.54111C16.2502 6.82611 15.6652 6.24111 14.9502 6.24111ZM11.9602 13.6901C11.8042 13.8331 11.7132 14.0281 11.7132 14.2491C11.7261 14.4101 11.7985 14.5606 11.9163 14.6711C12.034 14.7817 12.1887 14.8444 12.3502 14.8471H13.6502C13.8117 14.8444 13.9664 14.7817 14.0842 14.6711C14.202 14.5606 14.2743 14.4101 14.2872 14.2491C14.2872 14.0541 14.1962 13.8721 14.0402 13.6901C13.9295 13.6009 13.7924 13.5506 13.6502 13.5471H12.3502C12.1942 13.5471 12.0642 13.6121 11.9602 13.6901ZM15.6002 16.7971C15.6002 16.6411 15.5222 16.4331 15.3532 16.3031C15.2407 16.2065 15.0985 16.1514 14.9502 16.1471H11.0502C10.8942 16.1471 10.7642 16.2121 10.6472 16.3031C10.5042 16.4331 10.4002 16.6281 10.4002 16.7971C10.4002 17.1611 10.6862 17.4471 11.0502 17.4471H14.9502C15.3142 17.4471 15.6002 17.1611 15.6002 16.7971ZM11.0502 20.0471H14.9502C15.3142 20.0471 15.6002 19.7611 15.6002 19.3971C15.6002 19.0331 15.3142 18.7471 14.9502 18.7471H11.0502C10.6862 18.7471 10.4002 19.0331 10.4002 19.3971C10.4002 19.7611 10.6862 20.0471 11.0502 20.0471ZM12.3502 22.6471H13.6502C14.0142 22.6471 14.3002 22.3611 14.3002 21.9971C14.3002 21.6331 14.0142 21.3471 13.6502 21.3471H12.3502C11.9862 21.3471 11.7002 21.6331 11.7002 21.9971C11.7002 22.3611 11.9862 22.6471 12.3502 22.6471Z" fill="url(#paint0_linear)"/>
<defs>
<linearGradient id="paint0_linear" x1="4.54458" y1="20.3367" x2="23.9271" y2="16.8128" gradientUnits="userSpaceOnUse">
<stop stop-color="#C1E151"/>
<stop offset="1" stop-color="#8EB409"/>
</linearGradient>
</defs>
</svg>
