<svg width="14" height="10" viewBox="0 0 14 10" fill="none" xmlns="http://www.w3.org/2000/svg">
<path d="M4.99998 0.333344C5.69332 0.333344 6.37332 0.493343 6.99998 0.786677C7.62665 0.493343 8.30665 0.333344 8.99998 0.333344C10.2377 0.333344 11.4246 0.825009 12.2998 1.70018C13.175 2.57535 13.6667 3.76233 13.6667 5.00001C13.6667 6.23769 13.175 7.42467 12.2998 8.29984C11.4246 9.17501 10.2377 9.66668 8.99998 9.66668C8.30665 9.66668 7.62665 9.50668 6.99998 9.21334C6.37332 9.50668 5.69332 9.66668 4.99998 9.66668C3.76231 9.66668 2.57532 9.17501 1.70015 8.29984C0.824982 7.42467 0.333317 6.23769 0.333317 5.00001C0.333317 3.76233 0.824982 2.57535 1.70015 1.70018C2.57532 0.825009 3.76231 0.333344 4.99998 0.333344V0.333344ZM4.66665 5.00001C4.66665 6.24668 5.19332 7.37334 6.03998 8.16668L6.70665 7.86001C5.87332 7.19334 5.33332 6.16001 5.33332 5.00001C5.33332 3.84001 5.87332 2.80668 6.70665 2.14001L6.03998 1.83334C5.60605 2.2387 5.26019 2.72903 5.02392 3.27382C4.78766 3.81861 4.66604 4.4062 4.66665 5.00001V5.00001ZM9.33332 5.00001C9.33332 3.75334 8.80665 2.62668 7.95998 1.83334L7.29332 2.14001C8.12665 2.80668 8.66665 3.84001 8.66665 5.00001C8.66665 6.16001 8.12665 7.19334 7.29332 7.86001L7.95998 8.16668C8.39392 7.76132 8.73978 7.27099 8.97605 6.7262C9.21231 6.18141 9.33393 5.59382 9.33332 5.00001V5.00001Z" fill="url(#paint0_linear)"/>
<defs>
<linearGradient id="paint0_linear" x1="1.14238" y1="7.68335" x2="13.8027" y2="7.30221" gradientUnits="userSpaceOnUse">
<stop stop-color="#D0243C"/>
<stop offset="1" stop-color="#FD4103"/>
</linearGradient>
</defs>
</svg>
